<?xml version="1.0" encoding="UTF-8"?>
<!-- Created with Inkscape (http://www.inkscape.org/) -->
<svg id="svg2" width="97.904" height="70.471" version="1.1" viewBox="0 0 97.904 70.471" xml:space="preserve" xmlns="http://www.w3.org/2000/svg"><g id="g10" transform="matrix(1.3333 0 0 -1.3333 -194.83 139.71)"><path id="path106991-2-9-2" d="m171.7 68.346-23.16-14.622" fill="none" stroke="#120458" stroke-width=".89009"/><path id="path97820" d="m164.95 73.443 19.841-12.313 19.84 12.313-19.84 12.313zm19.841-13.486-21.729 13.486 21.729 13.485 21.728-13.485-21.728-13.486" fill="#120458" stroke="#120458" stroke-width=".096678"/><path id="path106991-2-9" d="m216.57 94.528-22.801-15.316" fill="none" stroke="#120458" stroke-width=".89009"/><path id="path97822" d="m199.09 77.878-14.295-8.8706v17.742l14.295 8.8706v-17.742" fill="#120458"/><path id="path97824" d="m184.79 86.75-14.295 8.8706 14.295 8.8716 14.295-8.8716-14.295-8.8706" fill="#d9effb"/><path id="path97826" d="m184.79 69.008-14.295 8.8706v17.742l14.295-8.8706v-17.742" fill="#829dc7"/><path id="path73564-6-0-2-2" d="m218.11 92.943c-1.2262-0.76077-3.2143-0.76077-4.4405 0-1.2272 0.76077-1.2272 1.9956 0 2.7556 1.2262 0.76157 3.2143 0.76157 4.4405 0 1.2272-0.75997 1.2272-1.9948 0-2.7556" fill="#120458"/><path id="path73564-6-0-2-2-8" d="m174.13 67.028c-1.2262-0.76077-3.2143-0.76077-4.4405 0-1.2272 0.76077-1.2272 1.9956 0 2.7556 1.2262 0.76157 3.2143 0.76157 4.4405 0 1.2272-0.75996 1.2272-1.9948 0-2.7556" fill="#120458"/><path id="path73564-6-0-2-2-3" d="m151.82 52.842c-1.2262-0.76076-3.2143-0.76076-4.4405 0-1.2272 0.76077-1.2272 1.9956 0 2.7556 1.2262 0.76157 3.2143 0.76157 4.4405 0 1.2272-0.75996 1.2272-1.9948 0-2.7556" fill="#120458" stroke="#120458" stroke-width=".096678"/><g id="g131" transform="matrix(.75 -.46441 0 -.75 167.49 867.26)" fill="#1afe49"><g id="g129" transform="translate(1.3147e-7 -.1888)" fill="#1afe49"><path id="path125" d="m20.044 1031.7c-0.1937 0-0.36785 0.1007-0.46875 0.25-0.01 0-0.02425-0.01-0.03125 0l-0.84375 0.8438c-0.04359 0-0.08005-0.031-0.125-0.031h-10.125c-0.044946 0-0.081411 0.027-0.125 0.031l-0.71875-0.7188c-0.0097-0.023-0.01871-0.042-0.03125-0.062-0.0071-0.01-0.02269 0.01-0.03125 0-0.0998-0.1555-0.23904-0.2812-0.4375-0.2812-0.30997 0-0.5625 0.2525-0.5625 0.5625 0 0.1937 0.10071 0.3678 0.25 0.4687 0.0049 0.01-0.0071 0.024 0 0.031l0.59375 0.5937c-0.024148 0.069-0.0625 0.1444-0.0625 0.2188v2.5312c0 0.62 0.50506 1.0938 1.125 1.0938h10.125c0.61994 0 1.125-0.4738 1.125-1.0938v-2.5312c0-0.074-0.03835-0.15-0.0625-0.2188l0.625-0.625c0.023-0.01 0.0415-0.019 0.0625-0.031 0.01-0.01-0.01-0.023 0-0.031 0.1555-0.1 0.28125-0.2391 0.28125-0.4375 0-0.31-0.2525-0.5625-0.5625-0.5625zm-9.3359 2.1778a1.1225 1.1225 0 0 1 1.1211 1.123 1.1225 1.1225 0 0 1-1.1211 1.1211 1.1225 1.1225 0 0 1-1.123-1.1211 1.1225 1.1225 0 0 1 1.123-1.123zm5.6113 0a1.1225 1.1225 0 0 1 1.123 1.123 1.1225 1.1225 0 0 1-1.123 1.1211 1.1225 1.1225 0 0 1-1.1211-1.1211 1.1225 1.1225 0 0 1 1.1211-1.123z"/><path id="path127" d="m8.5125 1038.3c-0.61994 0-1.125 0.505-1.125 1.125v4.5c0 0.6199 0.50506 1.125 1.125 1.125h10.125c0.61994 0 1.125-0.5051 1.125-1.125v-4.5c0-0.62-0.50506-1.125-1.125-1.125z"/></g></g></g></svg>
