<?xml version="1.0" encoding="UTF-8"?>
<!-- Created with Inkscape (http://www.inkscape.org/) -->
<svg id="svg2" width="97.904" height="70.471" version="1.1" viewBox="0 0 97.904 70.471" xml:space="preserve" xmlns="http://www.w3.org/2000/svg"><g id="g10" transform="matrix(1.3333 0 0 -1.3333 -194.83 139.71)"><path id="path106991-2-9-2" d="m171.7 68.346-23.16-14.622" fill="none" stroke="#120458" stroke-width=".89009"/><path id="path97820" d="m164.95 73.443 19.841-12.313 19.84 12.313-19.84 12.313zm19.841-13.486-21.729 13.486 21.729 13.485 21.728-13.485-21.728-13.486" fill="#120458" stroke="#120458" stroke-width=".096678"/><path id="path106991-2-9" d="m216.57 94.528-22.801-15.316" fill="none" stroke="#120458" stroke-width=".89009"/><path id="path97822" d="m199.09 77.878-14.295-8.8706v17.742l14.295 8.8706v-17.742" fill="#120458"/><path id="path97824" d="m184.79 86.75-14.295 8.8706 14.295 8.8716 14.295-8.8716-14.295-8.8706" fill="#d9effb"/><path id="path97826" d="m184.79 69.008-14.295 8.8706v17.742l14.295-8.8706v-17.742" fill="#829dc7"/><path id="path73564-6-0-2-2" d="m218.11 92.943c-1.2262-0.76077-3.2143-0.76077-4.4405 0-1.2272 0.76077-1.2272 1.9956 0 2.7556 1.2262 0.76157 3.2143 0.76157 4.4405 0 1.2272-0.75997 1.2272-1.9948 0-2.7556" fill="#120458"/><path id="path73564-6-0-2-2-8" d="m174.13 67.028c-1.2262-0.76077-3.2143-0.76077-4.4405 0-1.2272 0.76077-1.2272 1.9956 0 2.7556 1.2262 0.76157 3.2143 0.76157 4.4405 0 1.2272-0.75996 1.2272-1.9948 0-2.7556" fill="#120458"/><path id="path73564-6-0-2-2-3" d="m151.82 52.842c-1.2262-0.76076-3.2143-0.76076-4.4405 0-1.2272 0.76077-1.2272 1.9956 0 2.7556 1.2262 0.76157 3.2143 0.76157 4.4405 0 1.2272-0.75996 1.2272-1.9948 0-2.7556" fill="#120458" stroke="#120458" stroke-width=".096678"/><g id="g129" transform="matrix(.77377 -.54172 -.047977 -.80326 167.79 101.48)" fill="#1afe49"><path id="path125" d="m10.864 18.77a1.0285 1.0285 0 0 1-1.0285-1.0285 1.0285 1.0285 0 0 1 1.0285-1.0285 1.0285 1.0285 0 0 1 1.0285 1.0285 1.0285 1.0285 0 0 1-1.0285 1.0285m2.9054-2.057c-0.42167-1.1982-1.5633-2.0568-2.9054-2.0568a3.0854 3.0854 0 0 0-3.0854 3.0854 3.0854 3.0854 0 0 0 3.0854 3.0854c1.3421 0 2.4838-0.85878 2.9054-2.0568h2.2369v2.0568h2.0568v-2.0568h1.0285v-2.057h-5.3223z" stroke-width="1.779"/><path id="path127" d="m16.74 9.6309c-1.5882-1.1968-3.4508-1.7765-5.2991-1.7797l-0.0034 1.4731c1.536 0.00154 3.0904 0.4843 4.4159 1.4831 1.3255 0.99883 2.218 2.36 2.6429 3.8361l1.4151-0.40927c-0.51255-1.7757-1.5832-3.4065-3.1714-4.6032m-1.773 2.3529c-1.0588-0.79789-2.2982-1.1846-3.5327-1.1865l-0.0034 1.4731c0.92216 1.34e-4 1.8535 0.29 2.6496 0.88989 0.79608 0.59989 1.3314 1.4152 1.5857 2.3016l1.4151-0.40927c-0.34201-1.1861-1.0554-2.271-2.1143-3.0688z"/></g></g></svg>
